[
    {
        "id" : 0,
        "achievement" : "verde",
        "title" : "15 dias seguidos",
        "subtitle" : "15 dias seguidos subtitle",
        "description_off" : "Lorem ipsum dollor sammet",
        "description_on" : "Lorem ipsum dollor sammet",
        "icon" : "verde",
        "rules" : []
    },
    {
        "id" : 1,
        "achievement" : "Azul",
        "title" : "15 dias seguidos",
        "subtitle" : "15 dias seguidos subtitle",
        "description_off" : "Lorem ipsum dollor sammet",
        "description_on" : "Lorem ipsum dollor sammet",
        "icon" : "azul",
        "rules" : []
    },
    {
        "id" : 2,
        "achievement" : "Roxo",
        "title" : "15 dias seguidos",
        "subtitle" : "15 dias seguidos subtitle",
        "description_off" : "",
        "description_on" : "Lorem ipsum dollor sammet",
        "icon" : "lilas",
        "rules" : []
    },
    {
        "id" : 3,
        "achievement" : "Lilas",
        "title" : "15 dias seguidos",
        "subtitle" : "15 dias seguidos subtitle",
        "description_off" : "Lorem ipsum dollor sammet",
        "description_on" : "Lorem ipsum dollor sammet",
        "icon" : "rosa",
        "rules" : []
    },
    {
        "id" : 4,
        "achievement" : "Amarelo",
        "title" : "15 dias seguidos",
        "subtitle" : "15 dias seguidos subtitle",
        "description_off" : "Lorem ipsum dollor sammet",
        "description_on" : "Lorem ipsum dollor sammet",
        "icon" : "amarelo",
        "rules" : []
    },
    {
        "id" : 5,
        "achievement" : "15 dias seguidos",
        "title" : "15 dias seguidos",
        "subtitle" : "15 dias seguidos",
        "description_off" : "Você acessou o aplicativo por 15 dias seguidos!",
        "description_on" : "Você acessou o aplicativo por 15 dias seguidos!",
        "icon" : "15dias",
        "rules" : [0]
    },
    {
        "id" : 6,
        "achievement" : "30 dias seguidos",
        "title" : "30 dias seguidos",
        "subtitle" : "30 dias seguidos",
        "description_off" : "Você acessou o aplicativo por 30 dias seguidos!",
        "description_on" : "Você acessou o aplicativo por 30 dias seguidos!",
        "icon" : "30dias",
        "rules" : [1]  	
    },
    {
        "id" : 7,
        "achievement" : "Fez 20 buscas",
        "title" : "Fez 20 buscas",
        "subtitle" : "20 buscas",
        "description_off" : "Você fez muitas buscas e é um grande investigador!",
        "description_on" : "Você fez muitas buscas e é um grande investigador!",
        "icon" : "20buscas",
        "rules" : [2]  	
    },
    {
        "id" : 8,
        "achievement" : "Carrinho",
        "title" : "100 episódios",
        "subtitle" : "Assistiu 100 episódios",
        "description_off" : "Você está ligado! Aproveite seu novo avatar.",
        "description_on" : "Você está ligado! Aproveite seu novo avatar.",
        "icon" : "100episodios",
        "rules" : [3]  	
    },
    {
        "id" : 9,
        "achievement" : "Foguete",
        "title" : "Assistiu 500 episódios",
        "subtitle" : "Assistiu 500 vídeos",
        "description_off" : "Você é um mega fã e ganhou um avatar exclusivo!",
        "description_on" : "Você é um mega fã e ganhou um avatar exclusivo!",
        "icon" : "500episodios",
        "rules" : [4]  	
    },
    {
        "id" : 10,
        "achievement" : "Gaby Estrella",
        "title" : "Fazendeiro",
        "subtitle" : "Assistiu 42 vídeos",
        "description_off" : "Você assistiu muitos episódios de Gaby  Estrella!",
        "description_on" : "Você assistiu muitos episódios de Gaby  Estrella!",
        "icon" : "gabyestrela",
        "rules" : [5]  	
    },
    {
        "id" : 11,
        "achievement" : "Detetive",
        "title" : "Detetive",
        "subtitle" : "Assistiu 26 vídeos",
        "description_off" : "Você assistiu muitos episódios de D.P.A!",
        "description_on" : "Você assistiu muitos episódios de D.P.A!",
        "icon" : "dpa",
        "rules" : [6]  	
    },
    {
        "id" : 12,
        "achievement" : "Padeiro",
        "title" : "Padeiro",
        "subtitle" : "Assistiu 26 vídeos",
        "description_off" : "Você assistiu muitos episódios de Osmar!",
        "description_on" : "Você assistiu muitos episódios de Osmar!",
        "icon" : "osmar",
        "rules" : [7]  	
    },
    {
        "id" : 13,
        "achievement" : "Mestre Cuca",
        "title" : "Mestre Cuca",
        "subtitle" : "Assistiu 26 vídeos",
        "description_off" : "Você assistiu muitas receitas e é um Mestre Cuca!",
        "description_on" : "Você assistiu muitas receitas e é um Mestre Cuca!",
        "icon" : "tcnc",
        "rules" : [8]
    },
    {
        "id" : 14,
        "achievement" : "Aventureiro",
        "title" : "Aventureiro",
        "subtitle" : "Assistiu 26 episódios",
        "description_off" : "Você entrou mesmo na aventura de Buuu!",
        "description_on" : "Você entrou mesmo na aventura de Buuu!",
        "icon" : "buuu",
        "rules" : [9]
    },
    {
        "id" : 15,
        "achievement" : "Fada Manu",
        "title" : "Encantada",
        "subtitle" : "Assistiu 26 episódios",
        "description_off" : "Assistiu 26 vídeos",
        "description_on" : "A magia está em você! Aproveite seu novo avatar.",
        "icon" : "fadamanu",
        "rules" : [10]  	
    },
    {
        "id" : 16,
        "achievement" : "Aniversário",
        "title" : "Aniversário",
        "subtitle" : "No Aniversário do perfil",
        "description_off" : "um avatar de presente no mês do seu aniversário!",
        "description_on" : "um avatar de presente no mês do seu aniversário!",
        "icon" : "aniversario",
        "rules" : [11]  	
    },
    {
        "id" : 17,
        "achievement" : "Aniversário Gloob",
        "title" : "Aniversário do Gloob",
        "subtitle" : "No Aniversário do Gloob",
        "description_off" : "O Gloob faz aniversário e quem ganha é você!",
        "description_on" : "O Gloob faz aniversário e quem ganha é você!",
        "icon" : "aniversariogloob",
        "rules" : [12]  	
    },
    {
        "id" : 18,
        "achievement" : "Ano novo",
        "title" : "Ano Novo",
        "subtitle" : "Ano Novo",
        "description_off" : "Ano novo",
        "description_on" : "Você ganhou um avatar para comemorar o Ano Novo! Use até 15/01.",
        "icon" : "anonovo",
        "rules" : [13]
    },
    {
        "id" : 19,
        "achievement" : "Carnaval",
        "title" : "Carnaval",
        "subtitle" : "Carnaval",
        "description_off" : "Carnaval",
        "description_on" : "Curta a folia com o seu novo avatar de carnaval.",
        "icon" : "carnaval",
        "rules" : [14]
    },
    {
        "id" : 20,
        "achievement" : "Páscoa",
        "title" : "Páscoa",
        "subtitle" : "Páscoa",
        "description_off" : "Páscoa",
        "description_on" : "O coelhinho invadiu o Gloob e te deu um avatar!",
        "icon" : "pascoa",
        "rules" : [15]
    },
    {
        "id" : 21,
        "achievement" : "Dia das Crianças",
        "title" : "Dia das Crianças",
        "subtitle" : "Dia das Crianças",
        "description_off" : "Um avatar de presente no dia das crianças!",
        "description_on" : "Um avatar de presente no dia das crianças!",
        "icon" : "diadascriancas",
        "rules" : [16]
    },
    {
        "id" : 22,
        "achievement" : "Festa Junina",
        "title" : "Festa Junina",
        "subtitle" : "Festa Junina",
        "description_off" : "Entre no clima de festa junina com seu novo avatar",
        "description_on" : "Entre no clima de festa junina com seu novo avatar",
        "icon" : "festajunina",
        "rules" : [17]
    },
    {
        "id" : 23,
        "achievement" : "Férias Escolares",
        "title" : "Férias Escolares",
        "subtitle" : "Férias Escolares",
        "description_off" : "Ferias Escolares",
        "description_on" : "Leve esse novo avatar para as suas férias! Use até final de julho!",
        "icon" : "feriasescolares",
        "rules" : [18]
    },
    {
        "id" : 24,
        "achievement" : "Férias Escolares",
        "title" : "Férias Escolares",
        "subtitle" : "Férias Escolares",
        "description_off" : "Ferias Escolares",
        "description_on" : "Leve esse novo avatar para as suas férias! Use até final de janeiro!",
        "icon" : "feriasescolares",
        "rules" : [19]
    },
    {
        "id" : 25,
        "achievement" : "Natal",
        "title" : "Feliz Natal!",
        "subtitle" : "Feliz Natal",
        "description_off" : "Ferias Escolares",
        "description_on" : "É Natal! Aproveite este avatar até o final do mês.",
        "icon" : "natal",
        "rules" : [31]
    }
]