 [
  {
  "id" : 0,
  "achievement" : "Sócio",
  "title" : "Sócio",
  "subtitle" : "Ao finalizar etapa inicial de cadastro",
  "description_off" : "Ao finalizar etapa inicial de cadastro",
  "description_on" : "Você entrou no nosso mundo. Divirta-se!",
  "icon" : "socio",
  "rules" : [20]
  },
  {
  "id" : 1,
  "achievement" : "Gamer",
  "title" : "Gamer",
  "subtitle" : "Jogar o primeiro jogo",
  "description_off" : "Jogue qualquer jogo para ganhar uma selfie!",
  "description_on" : "Continue jogando para ganhar mais selfies!",
  "icon" : "gamer",
  "rules" : [21]
  },
  {
  "id" : 2,
  "achievement" : "Campeão",
  "title" : "Campeão",
  "subtitle" : "Ao jogar o décimo jogo",
  "description_off" : "Jogue alguns jogos e ganhe uma selfie!",
  "description_on" : "Você está jogando muito e é um Campeão!",
  "icon" : "campeao",
  "rules" : [22]
  },
  {
  "id" : 3,
  "achievement" : "Tô amando",
  "title" : "Tô amando",
  "subtitle" : "Após adicionar 10 vídeos aos favoritos",
  "description_off" : "Favorite pelo menos 10 vídeos e ganhe uma selfie!",
  "description_on" : "Você já tem 10 vídeos na sua lista!",
  "icon" : "toamando",
  "rules" : [23]
  },
  {
  "id" : 4,
  "achievement" : "Ultra Power Game",
  "title" : "Ultra Power Game",
  "subtitle" : "Após jogar 20 jogos diferentes",
  "description_off" : "Jogue todos os jogos e ganhe uma selfie!",
  "description_on" : "Você é um ultra Ultra Power Gamer!",
  "icon" : "ultrapower",
  "rules" : [24]
  },
  {
  "id" : 5,
  "achievement" : "Osmar",
  "title" : "Osmar",
  "subtitle" : "Assistiu 10 vídeos do personagem",
  "description_off" : "Assista a 10 episódios de Osmar!",
  "description_on" : "Você assistiu a 10 episódios de Osmar!",
  "icon" : "osmar",
  "rules" : [25]
  },
  {
  "id" : 6,
  "achievement" : "TCNC",
  "title" : "TCNC",
  "subtitle" : "Assistiu 10 vídeos do personagem",
  "description_off" : "Assista a 10 episódios de Tem Criança na Cozinha!",
  "description_on" : "Você assistiu a 10 receitas na nossa cozinha!",
  "icon" : "tcnc",
  "rules" : [26]
  },
  {
  "id" : 7,
  "achievement" : "Buuu",
  "title" : "Buuu",
  "subtitle" : "Assistiu 10 vídeos do personagem",
  "description_off" : "Assista a 10 episódios de Buuu e ganhe uma selfie!",
  "description_on" : "Você assistiu a 10 episódios de Buuu!",
  "icon" : "buuu",
  "rules" : [27]
  },
  {
  "id" : 8,
  "achievement" : "Fada Manu",
  "title" : "Encantada",
  "subtitle" : "Assistiu 10 vídeos do personagem",
  "description_off" : "Assista a 10 episódios de Fada Manu!",
  "description_on" : "Você assistiu a 10 episódios de Fada Manu!",
  "icon" : "fadamanu",
  "rules" : [28]
  },
  {
  "id" : 9,
  "achievement" : "Gaby Estrella",
  "title" : "Gaby Estrella",
  "subtitle" : "Assistiu 10 vídeos do personagem",
  "description_off" : "Assista a 10 episódios de Gaby Estrella!",
  "description_on" : "Você assistiu a 10 episódios de Gaby Estrella!",
  "icon" : "gaby",
  "rules" : [29]
  },
  {
  "id" : 10,
  "achievement" : "D.P.A",
  "title" : "D.P.A",
  "subtitle" : "Assistiu 10 vídeos do personagem",
  "description_off" : "Assista a 10 episódios de D.P.A.!",
  "description_on" : "Você assistiu a 10 episódios de D.P.A.!",
  "icon" : "dpa",
  "rules" : [30]
  }
  
  ]